…
``` r
library(hosperf)
library(tidyverse) # lazy since it's just for better printing

# current verison
packageVersion("hosperf")
```

    ## [1] '0.1.0'

``` r
get_hospitals()
```

    ## # A tibble: 1,418 x 14
    ##    code  description   establishmentId    id isPublic isClosed latitude  longitude name   peerGroupId state code  name 
    ##    <chr> <chr>         <chr>           <int> <lgl>    <lgl>    <chr>     <chr>     <chr>        <int> <chr> <chr> <chr>
    ##  1 12    Specialist p… 540100135          12 TRUE     FALSE    -31.9609… 115.7884… State…           0 WA    ML501 Pert…
    ##  2 13    Specialist p… 1117C1010          13 TRUE     FALSE    -33.9690… 151.2432… Justi…           0 NSW   PHN5… Pert…
    ##  3 14    Specialist c… 1116A2070          14 TRUE     FALSE    -33.8015… 150.9917… The C…           0 NSW   ML101 East…
    ##  4 15    Specialist c… 1151C2380          15 TRUE     FALSE    -33.9171… 151.2383… Sydne…           0 NSW   PHN1… Cent…
    ##  5 16    Metropolitan… 1151A2090          16 TRUE     FALSE    -33.8805… 151.2192… Sacre…           0 NSW   ML105 West…
    ##  6 17    Major hospit… 1151A2120          17 TRUE     FALSE    -33.8796… 151.2211… St Vi…           0 NSW   PHN1… West…
    ##  7 18    Metropolitan… 1152D2130          18 TRUE     FALSE    -33.8486… 151.0283… St Jo…           0 NSW   ML101 East…
    ##  8 19    Metropolitan… 1150A2010          19 TRUE     FALSE    -33.8594… 151.1814… Balma…           0 NSW   PHN1… Cent…
    ##  9 20    Medium metro… 1150A2020          20 TRUE     FALSE    -33.9195… 151.0982… Cante…           0 NSW   ML101 East…
    ## 10 21    Major hospit… 1150A2080          21 TRUE     FALSE    -33.8892… 151.1829… Royal…           0 NSW   PHN1… Cent…
    ## # ... with 1,408 more rows, and 1 more variable: communityType <chr>

``` r
get_indicators()
```

    ## # A tibble: 723 x 5
    ##    code  indicatorName                                                                 name     pluralName singularName
    ##  * <chr> <chr>                                                                         <chr>    <chr>      <chr>       
    ##  1 1     Median waiting time for surgery for malignant cancer                          Breast … days       day         
    ##  2 2     Median waiting time for surgery for malignant cancer                          Bowel c… days       day         
    ##  3 3     Median waiting time for surgery for malignant cancer                          Lung ca… days       day         
    ##  4 4     Number of surgeries for malignant cancer                                      Breast … surgeries  surgery     
    ##  5 5     Number of surgeries for malignant cancer                                      Bowel c… surgeries  surgery     
    ##  6 6     Number of surgeries for malignant cancer                                      Lung ca… surgeries  surgery     
    ##  7 7     Percentage of people who received surgery for malignant cancer within 30 days Breast … %          %           
    ##  8 8     Percentage of people who received surgery for malignant cancer within 30 days Bowel c… %          %           
    ##  9 9     Percentage of people who received surgery for malignant cancer within 30 days Lung ca… %          %           
    ## 10 10    Percentage of people who received surgery for malignant cancer within 45 days Breast … %          %           
    ## # ... with 713 more rows
…
